{
  "name": "renovate-config-config",
  "description": "Opinionated full preset configs for Renovate",
  "author": "Rhys Arkins <rhys@arkins.net>",
  "license": "MIT",
  "homepage": "https://github.com/singapore/renovate-config",
  "repository": {
    "type": "git",
    "url": "git+https://rarkins@github.com/singapore/renovate-config.git"
  },
  "bugs": {
    "url": "https://github.com/singapore/renovate-config/issues"
  },
  "version": "0.1.3",
  "renovate-config": {
    "base": {
      "description": "Default base configuration for all languages",
      "extends": [
        ":separateMajorReleases",
        ":combinePatchMinorReleases",
        ":ignoreUnstable",
        ":prImmediately",
        ":renovatePrefix",
        ":semanticPrefixFixDepsChoreOthers",
        ":updateNotScheduled",
        ":automergeDisabled",
        ":ignoreModulesAndTests",
        ":maintainLockFilesDisabled",
        ":autodetectPinVersions",
        ":prHourlyLimit2",
        ":prConcurrentLimit20",
        "group:monorepos",
        "group:recommended",
        "helpers:disableTypesNodeMajor"
      ]
    },
    "base-js": {
      "description": "Base configuration for Javascript (deprecated)",
      "extends": [
        "config:base"
      ]
    },
    "js-app": {
      "description": "Default configuration for webapps",
      "extends": [
        "config:base",
        ":pinAllExceptPeerDependencies"
      ]
    },
    "js-lib": {
      "description": "Default configuration for libraries",
      "extends": [
        "config:base",
        ":pinOnlyDevDependencies"
      ]
    },
    "semverAllMonthly": {
      "description": "Preserve semver ranges and update everything together once a month",
      "separateMajorMinor": false,
      "extends": [
        ":preserveSemverRanges",
        "group:all",
        "schedule:monthly",
        ":maintainLockFilesMonthly"
      ],
      "lockFileMaintenance": {
        "extends": ["group:all"],
        "commitMessageAction": "Update"
      }
    }
  }
}